﻿{
  "profiles": {
    "smkabsen": {
      "commandName": "Project",
      "launchBrowser": false,
      "applicationUrl": "http://localhost:5000",
      "environmentVariables": {
        "ASPNETCORE_ENVIRONMENT": "Development",
        "SMKABSEN_PORT": "5000",
        "SMKABSEN_DB_CONN_STR": "mongodb://localhost/smkabsen"
      }
    }
  }
}
